{
    "name": "BovineLabs.Fix32.Tests",
    "references": [
        "GUID:4f52c0d866bb9a746920d21bc50b916e",
        "GUID:0acc523941302664db1f4e527237feb3",
        "GUID:27619889b8ba8c24980f49ee34dbb44a",
        "GUID:d8b63aba1907145bea998dd612889d6b"
    ],
    "includePlatforms": [
        "Editor"
    ],
    "excludePlatforms": [],
    "allowUnsafeCode": false,
    "overrideReferences": true,
    "precompiledReferences": [
        "nunit.framework.dll"
    ],
    "autoReferenced": false,
    "defineConstraints": [
        "UNITY_INCLUDE_TESTS"
    ],
    "versionDefines": [],
    "noEngineReferences": false
}